eeeesgddddddgsssgssmp
eesssgddddsgggsgssopp
esgggsdddsgggggggnpep
epggssddxsgegggggnppo
spppsssdssgeegonnneee
ssgpppgsssgggognxeeen
gspppmgnnnggggggeeeng
sspmppppngggggggpengg
gsssspppgsnsnnppgognn
sgssssspggpggppggggnn
fsgsssoppgcppggssgnee
fggsggsspeppnggneneen
fgsessgsggppnnoenneff
fggnoegggopgpnnofffff
gggooegggggmpnsfffffg
googeegxgggppsnffgfgn
ssggssggppppppngggoss
nnnnnpppppgnnpppsgnne
gnpppppgnggggggpppeee
eppeegggeengggggmppee
ppegxognssggggggseeee